{
    "editor": [
        {
            "icon": "",
            "key": "preGameScreen",
            "header": "PreGameScreen",
            "disabled": false,
            "fields": [
                {
                    "key": "titleText",
                    "header": "Title Text",
                    "type": "text"
                },
                {
                    "key": "titleTextSize",
                    "header": "Title text size",
                    "type": "range"
                },
                {
                    "key": "playButtonText",
                    "header": "Play Button Text",
                    "type": "text"
                },
                {
                    "key": "buttonTextColor",
                    "header": "Play Button Text Color",
                    "type": "color"
                },
                {
                    "key": "backgroundImage",
                    "header": "Background Image",
                    "type": "image"
                },
                {
                    "key": "titleImage",
                    "header": "Header Image",
                    "type": "image"
                },
                {
                    "key": "titleImageSize",
                    "header": "Header image size",
                    "type": "range"
                }, 
                {
                    "key": "cardColor",
                    "header": "Card Color",
                    "type": "color"
                },
                {
                    "key": "buttonColor",
                    "header": "Play Button Color",
                    "type": "color"
                },
                {
                    "key": "fontFamily",
                    "header": "Google Font Name",
                    "type": "text"
                },
                {
                    "key": "showLeaderboardButton",
                    "header": "Show leaderboard button",
                    "type": "boolean"
                },
                {
                    "key": "leaderboardButtonText",
                    "header": "Leaderboard button text",
                    "type": "text"
                }
            ]
        },
        {
            "icon": "",
            "key": "settings",
            "header": "Game Settings",
            "disabled": false,
            "fields": [
                {
                    "key": "instructions1",
                    "type": "text",
                    "header": "Instructions Text 1"
                },
                {
                    "key": "instructions2",
                    "type": "text",
                    "header": "Instructions Text 2"
                },
                {
                    "key": "instructions3",
                    "type": "text",
                    "header": "Instructions Text 3"
                },
                {
                    "key": "textColor",
                    "header": "In Game Text Color",
                    "type": "color"
                },
                {
                    "key": "block",
                    "header": "Block Image",
                    "type": "image"
                }, 
                {
                    "key": "showPlayer",
                    "header": "Show player over platform",
                    "type": "boolean"
                },
                {
                    "key": "idle",
                    "header": "Player idle sprite",
                    "type": "image"
                },
                {
                    "key": "jump",
                    "header": "Player jump sprite",
                    "type": "image"
                },
                {
                    "key": "blockSize",
                    "type": "range",
                    "header": "Block size"
                },
                {
                    "key": "blockCount",
                    "header": "Block count",
                    "type": "range",
                    "options": {
                        "min": 3,
                        "max": 6
                    }
                },
                {
                    "key": "depth",
                    "header": "Show depth effect",
                    "type": "boolean"
                },
                {
                    "key": "fixedLength",
                    "header": "Fixed game length",
                    "type": "boolean"
                },
                {
                    "key": "gameLength",
                    "header": "Game length",
                    "type": "range"
                },
                {
                    "key": "tap",
                    "header": "Tap sound effect",
                    "type": "sound"
                },
                {
                    "key": "theme",
                    "header": "Background Music",
                    "type": "sound"
                },
                {
                    "key": "lose",
                    "header": "Lose sound effect",
                    "type": "sound"
                },
                {
                    "key": "volume",
                    "header": "Background music volume",
                    "type": "range"
                },
                {
                    "key": "showComboText",
                    "header": "Show text when performing a combo",
                    "type": "boolean"
                },
                {
                    "key": "comboTextColor",
                    "header": "Combo text color",
                    "type": "color"
                },
                {
                    "key": "comboTexts",
                    "header": "Combo texts",
                    "type": "array",
                    "fields": [
                        {
                            "key": "i1",
                            "header": "1",
                            "type": "text"
                        },
                        {
                            "key": "i2",
                            "header": "2",
                            "type": "text"
                        },
                        {
                            "key": "i3",
                            "header": "3",
                            "type": "text"
                        },
                        {
                            "key": "i4",
                            "header": "4",
                            "type": "text"
                        }
                    ]
                }
            ]
        },
        {
            "icon": "",
            "key": "postGameScreen",
            "header": "Post Game Screen",
            "disabled": false,
            "fields": [
                {
                    "key": "scoreText",
                    "header": "Text before score",
                    "type": "text"
                },
                {
                    "key": "textColor",
                    "header": "Text Color",
                    "type": "text"
                },
                {
                    "key": "cardColor",
                    "header": "Card Background Color",
                    "type": "color"
                },
                {
                    "key": "playButtonText",
                    "header": "Play again button text",
                    "type": "text"
                },
                {
                    "key": "buttonColor",
                    "header": "Buttons color",
                    "type": "color"
                },
                {
                    "key": "buttonTextColor",
                    "header": "Buttons text color",
                    "type": "color"
                },
                {
                    "key": "showText",
                    "header": "Show custom text",
                    "type": "boolean"
                },
                {
                    "key": "customText",
                    "header": "Custom text",
                    "type": "text"
                },
                {
                    "key": "showLeadeboardButton",
                    "header": "Show Leadeboard Button",
                    "type": "boolean"
                },
                {
                    "key": "leaderboardButtonText",
                    "type": "text",
                    "header": "Leadeboard button text"
                },
                {
                    "key": "showCTA",
                    "header": "Show CTA Button",
                    "type": "boolean"
                },
                {
                    "key": "ctaText",
                    "header": "CTA text",
                    "type": "text"
                },
                {
                    "key": "ctaButtonText",
                    "header": "CTA button text",
                    "type": "text"
                },
                {
                    "key": "ctaUrl",
                    "header": "CTA Link",
                    "type": "text"
                }
            ]
        }
    ],
    "config": {
        "preGameScreen": {
            "titleText": "Stack The Blocks",
            "titleTextSize": 30,
            "playButtonText": "Play",
            "cardColor": "#ffffff",
            "buttonColor": "#000000",
            "buttonTextColor": "#ffffff",
            "backgroundImage": "http://playcent.com/protected/project-picker/23faddebc35545e6b47267bb170b9aec",
            "titleImage": "http://playcent.com/protected/project-picker/1ee4dcfbef094e8c8079bd5ab6b7df28",
            "titleImageSize": 200,
            "fontFamily": "Balsamiq Sans",
            "showLeaderboardButton": true,
            "leaderboardButtonText": "Leadeboard"
        },
        "settings": {
            "instructions1": "Tap / Spacebar to place blocks",
            "instructions2": "Place new blocks over the old ones",
            "instructions3": "Have fun!",
            "textColor": "#000",
            "theme": "http://playcent.com/protected/project-picker/cbd39755231941f8bad0b0f6e3543d84",
            "volume": "0.7",
            "block": "http://playcent.com/protected/project-picker/a38240f144d14d579bf1bae8c6e2e01c",
            "blockSize": 40,
            "blockCount": 5,
            "showPlayer": true,
            "idle": "http://playcent.com/protected/project-picker/e1dc65a7e28047ebac1b1fd168748471",
            "jump": "http://playcent.com/protected/project-picker/b903130ca90a458cba1c171271739dc7",
            "depth": true,
            "fixedLength": true,
            "gameLength": 15,
            "showComboText": true,
            "comboTextColor": "#ffff00",
            "comboTexts": {
                "i1": "Nice!",
                "i2": "Keep up!",
                "i3": "Great!",
                "i4": "Perfect!"
            },
            "tap": "http://playcent.com/protected/project-picker/602fc12775194fe292f67a863ff35aea",
            "lose": "http://playcent.com/protected/project-picker/5b187b2d023341238b211ab144828cb0"
        },
        "postGameScreen": {
            "scoreText": "Your score is: ",
            "playButtonText": "Play Again",
            "buttonColor": "#000000",
            "cardColor": "#ffffff",
            "textColor": "#ffffff",
            "showLeaderboardButton": true,
            "leaderboardButtonText": "Leaderboard",
            "showCTA": true,
            "ctaText": "Check out our page for more",
            "ctaButtonText": "Go to Playcent",
            "ctaUrl": "https://playcent.com/browser/#/home"
        }
    }
}
